{
  "subreddit": "unpopularopinion",
  "selftext": "I almost always shower with my socks on. It just feels more relaxing, I don’t really like the feeling of water below my feet. Having socks on, even light ones, feels like a nice towel to put around my feet when I’m showering. It’s just better this way. I’ve done this since I was like, 8, and I don’t ever plan on changing it. When I told my friends about it they all said it was really weird. I just think it is more comfortable, relaxing, and overall a better experience.\n\nEdit: jeez I really didn’t think that this was a big deal.\n\nEdit 2: To address some things:Yes, I actually do this, I personally like it, and it really isn’t problematic so I do it. My feet aren’t always super clean but I rub lotion on them occasionally.\n\nEdit 3: well I went to sleep, and now I have 953 notifications.",
  "title": "Taking showers with your socks on is so much better than not",
  "subreddit_name_prefixed": "r/unpopularopinion",
  "name": "t3_dfqxf8",
  "score": 20700,
  "thumbnail": "self",
  "selftext_html": "&lt;!-- SC_OFF --&gt;&lt;div class=\"md\"&gt;&lt;p&gt;I almost always shower with my socks on. It just feels more relaxing, I don’t really like the feeling of water below my feet. Having socks on, even light ones, feels like a nice towel to put around my feet when I’m showering. It’s just better this way. I’ve done this since I was like, 8, and I don’t ever plan on changing it. When I told my friends about it they all said it was really weird. I just think it is more comfortable, relaxing, and overall a better experience.&lt;/p&gt;\n\n&lt;p&gt;Edit: jeez I really didn’t think that this was a big deal.&lt;/p&gt;\n\n&lt;p&gt;Edit 2: To address some things:Yes, I actually do this, I personally like it, and it really isn’t problematic so I do it. My feet aren’t always super clean but I rub lotion on them occasionally.&lt;/p&gt;\n\n&lt;p&gt;Edit 3: well I went to sleep, and now I have 953 notifications.&lt;/p&gt;\n&lt;/div&gt;&lt;!-- SC_ON --&gt;",
  "id": "dfqxf8",
  "permalink": "/r/unpopularopinion/comments/dfqxf8/taking_showers_with_your_socks_on_is_so_much/",
  "url": "https://www.reddit.com/r/unpopularopinion/comments/dfqxf8/taking_showers_with_your_socks_on_is_so_much/",
  "subreddit_subscribers": 775462,
  "created_utc": 1570671373,
  "is_video": false,
  "author": "cynicallogic",
  "ups": 20700,
  "comments": [
    {
      "created_utc": 1570693670,
      "subreddit_name_prefixed": "r/unpopularopinion",
      "subreddit": "unpopularopinion",
      "depth": 0,
      "permalink": "/r/unpopularopinion/comments/dfqxf8/taking_showers_with_your_socks_on_is_so_much/f35vz2f/",
      "body_html": "&lt;div class=\"md\"&gt;&lt;p&gt;Bruh&lt;/p&gt;\n&lt;/div&gt;",
      "downs": 0,
      "body": "Bruh",
      "author": "RandomName01",
      "id": "t1_f35vz2f",
      "ups": 1
    },
    {
      "created_utc": 1570683149,
      "subreddit_name_prefixed": "r/unpopularopinion",
      "subreddit": "unpopularopinion",
      "depth": 0,
      "permalink": "/r/unpopularopinion/comments/dfqxf8/taking_showers_with_your_socks_on_is_so_much/f35nn9e/",
      "body_html": "&lt;div class=\"md\"&gt;&lt;p&gt;97% Disagree it&amp;#39;s the most unpopular opinion I&amp;#39;ve seen here after that guy who wanted to be pregnant&lt;/p&gt;\n&lt;/div&gt;",
      "downs": 0,
      "body": "97% Disagree it's the most unpopular opinion I've seen here after that guy who wanted to be pregnant",
      "author": "shantanu011",
      "id": "t1_f35nn9e",
      "ups": 2233
    },
    {
      "created_utc": 1570680701,
      "subreddit_name_prefixed": "r/unpopularopinion",
      "subreddit": "unpopularopinion",
      "depth": 0,
      "permalink": "/r/unpopularopinion/comments/dfqxf8/taking_showers_with_your_socks_on_is_so_much/f35kuhk/",
      "body_html": "&lt;div class=\"md\"&gt;&lt;p&gt;I&amp;#39;m gonna try this tonight op, and if it&amp;#39;s shit I will come for you.&lt;/p&gt;\n\n&lt;p&gt;Edit: just got home. Getting in shower now.&lt;/p&gt;\n\n&lt;p&gt;Edit 2 electric boogaloo: risky click of the day. \n&lt;a href=\"https://imgur.com/a/u1C215L\"&gt;No bamboozle&lt;/a&gt;&lt;/p&gt;\n\n&lt;p&gt;Edit 3: you!!!  I declare shenanigans.&lt;/p&gt;\n&lt;/div&gt;",
      "downs": 0,
      "body": "I'm gonna try this tonight op, and if it's shit I will come for you.\n\nEdit: just got home. Getting in shower now.\n\nEdit 2 electric boogaloo: risky click of the day. \n[No bamboozle](https://imgur.com/a/u1C215L)\n\nEdit 3: you!!!  I declare shenanigans.",
      "author": "OceLawless",
      "id": "t1_f35kuhk",
      "ups": 263
    },
    {
      "created_utc": 1570697457,
      "subreddit_name_prefixed": "r/unpopularopinion",
      "subreddit": "unpopularopinion",
      "depth": 1,
      "permalink": "/r/unpopularopinion/comments/dfqxf8/taking_showers_with_your_socks_on_is_so_much/f35y9gp/",
      "body_html": "&lt;div class=\"md\"&gt;&lt;p&gt;Or the guy who likes sleeping in jeans&lt;/p&gt;\n\n&lt;p&gt;Edit: to everyone commenting, I meant the dude liked to get into bed at night with the duvet on with jeans, not just taking a nap&lt;/p&gt;\n&lt;/div&gt;",
      "downs": 0,
      "body": "Or the guy who likes sleeping in jeans\n\nEdit: to everyone commenting, I meant the dude liked to get into bed at night with the duvet on with jeans, not just taking a nap",
      "author": "ShitOnMyArsehole",
      "id": "t1_f35y9gp",
      "ups": 638,
      "parent_id": "t1_f35nn9e"
    },
    {
      "created_utc": 1570703350,
      "subreddit_name_prefixed": "r/unpopularopinion",
      "subreddit": "unpopularopinion",
      "depth": 1,
      "permalink": "/r/unpopularopinion/comments/dfqxf8/taking_showers_with_your_socks_on_is_so_much/f361yrc/",
      "body_html": "&lt;div class=\"md\"&gt;&lt;p&gt;Am I pregegnant or am I ok?&lt;/p&gt;\n&lt;/div&gt;",
      "downs": 0,
      "body": "Am I pregegnant or am I ok?",
      "author": "HansenTakeASeat",
      "id": "t1_f361yrc",
      "ups": 56,
      "parent_id": "t1_f35nn9e"
    },
    {
      "created_utc": 1570709099,
      "subreddit_name_prefixed": "r/unpopularopinion",
      "subreddit": "unpopularopinion",
      "depth": 2,
      "permalink": "/r/unpopularopinion/comments/dfqxf8/taking_showers_with_your_socks_on_is_so_much/f369ye5/",
      "body_html": "&lt;div class=\"md\"&gt;&lt;p&gt;Or the guy who eats his cereal with water&lt;/p&gt;\n&lt;/div&gt;",
      "downs": 0,
      "body": "Or the guy who eats his cereal with water",
      "author": "nikithb",
      "id": "t1_f369ye5",
      "ups": 551,
      "parent_id": "t1_f35y9gp"
    },
    {
      "created_utc": 1570710788,
      "subreddit_name_prefixed": "r/unpopularopinion",
      "subreddit": "unpopularopinion",
      "depth": 2,
      "permalink": "/r/unpopularopinion/comments/dfqxf8/taking_showers_with_your_socks_on_is_so_much/f36drup/",
      "body_html": "&lt;div class=\"md\"&gt;&lt;p&gt;Sleeping in jeans is fine on a couch or something, but not good in a bed under sheets.&lt;/p&gt;\n&lt;/div&gt;",
      "downs": 0,
      "body": "Sleeping in jeans is fine on a couch or something, but not good in a bed under sheets.",
      "author": "bellowingbullfinches",
      "id": "t1_f36drup",
      "ups": 32,
      "parent_id": "t1_f35y9gp"
    },
    {
      "created_utc": 1570711829,
      "subreddit_name_prefixed": "r/unpopularopinion",
      "subreddit": "unpopularopinion",
      "depth": 3,
      "permalink": "/r/unpopularopinion/comments/dfqxf8/taking_showers_with_your_socks_on_is_so_much/f36ge9a/",
      "body_html": "&lt;div class=\"md\"&gt;&lt;p&gt;Good lord, I wanted to down vote this but realised you&amp;#39;re the messenger, we don&amp;#39;t shoot the messenger&lt;/p&gt;\n&lt;/div&gt;",
      "downs": 0,
      "body": "Good lord, I wanted to down vote this but realised you're the messenger, we don't shoot the messenger",
      "author": "Sazzybee",
      "id": "t1_f36ge9a",
      "ups": 286,
      "parent_id": "t1_f369ye5"
    },
    {
      "created_utc": 1570711069,
      "subreddit_name_prefixed": "r/unpopularopinion",
      "subreddit": "unpopularopinion",
      "depth": 3,
      "permalink": "/r/unpopularopinion/comments/dfqxf8/taking_showers_with_your_socks_on_is_so_much/f36efud/",
      "body_html": "&lt;div class=\"md\"&gt;&lt;p&gt;Yeah but you don&amp;#39;t purposely go to bed in jeans like the poster did&lt;/p&gt;\n&lt;/div&gt;",
      "downs": 0,
      "body": "Yeah but you don't purposely go to bed in jeans like the poster did",
      "author": "ShitOnMyArsehole",
      "id": "t1_f36efud",
      "ups": 16,
      "parent_id": "t1_f36drup"
    },
    {
      "created_utc": 1570710595,
      "subreddit_name_prefixed": "r/unpopularopinion",
      "subreddit": "unpopularopinion",
      "depth": 2,
      "permalink": "/r/unpopularopinion/comments/dfqxf8/taking_showers_with_your_socks_on_is_so_much/f36daww/",
      "body_html": "&lt;div class=\"md\"&gt;&lt;p&gt;Can you get.....PREGANTE&lt;/p&gt;\n&lt;/div&gt;",
      "downs": 0,
      "body": "Can you get.....PREGANTE",
      "author": "_Noot_Noot",
      "id": "t1_f36daww",
      "ups": 32,
      "parent_id": "t1_f361yrc"
    },
    {
      "created_utc": 1570711616,
      "subreddit_name_prefixed": "r/unpopularopinion",
      "subreddit": "unpopularopinion",
      "depth": 3,
      "permalink": "/r/unpopularopinion/comments/dfqxf8/taking_showers_with_your_socks_on_is_so_much/f36fubr/",
      "body_html": "&lt;div class=\"md\"&gt;&lt;h1&gt;AM I GREGNANT?!&lt;/h1&gt;\n&lt;/div&gt;",
      "downs": 0,
      "body": "#AM I GREGNANT?!",
      "author": "Macho_Mans_Ghost",
      "id": "t1_f36fubr",
      "ups": 29,
      "parent_id": "t1_f36daww"
    },
    {
      "created_utc": 1570681556,
      "subreddit_name_prefixed": "r/unpopularopinion",
      "subreddit": "unpopularopinion",
      "depth": 1,
      "permalink": "/r/unpopularopinion/comments/dfqxf8/taking_showers_with_your_socks_on_is_so_much/f35ltpb/",
      "body_html": "&lt;div class=\"md\"&gt;&lt;p&gt;[deleted]&lt;/p&gt;\n&lt;/div&gt;",
      "downs": 0,
      "body": "[deleted]",
      "author": "[deleted]",
      "id": "t1_f35ltpb",
      "ups": 136,
      "parent_id": "t1_f35kuhk"
    },
    {
      "created_utc": 1570690006,
      "subreddit_name_prefixed": "r/unpopularopinion",
      "subreddit": "unpopularopinion",
      "depth": 1,
      "permalink": "/r/unpopularopinion/comments/dfqxf8/taking_showers_with_your_socks_on_is_so_much/f35tfxh/",
      "body_html": "&lt;div class=\"md\"&gt;&lt;p&gt;So?&lt;/p&gt;\n&lt;/div&gt;",
      "downs": 0,
      "body": "So?",
      "author": "DaSwagCow",
      "id": "t1_f35tfxh",
      "ups": 33,
      "parent_id": "t1_f35kuhk"
    },
    {
      "created_utc": 1570725030,
      "subreddit_name_prefixed": "r/unpopularopinion",
      "subreddit": "unpopularopinion",
      "depth": 2,
      "permalink": "/r/unpopularopinion/comments/dfqxf8/taking_showers_with_your_socks_on_is_so_much/f37esup/",
      "body_html": "&lt;div class=\"md\"&gt;&lt;p&gt;You, sonofabitch.&lt;/p&gt;\n&lt;/div&gt;",
      "downs": 0,
      "body": "You, sonofabitch.",
      "author": "OceLawless",
      "id": "t1_f37esup",
      "ups": 10,
      "parent_id": "t1_f35ltpb"
    },
    {
      "created_utc": 1570691417,
      "subreddit_name_prefixed": "r/unpopularopinion",
      "subreddit": "unpopularopinion",
      "depth": 2,
      "permalink": "/r/unpopularopinion/comments/dfqxf8/taking_showers_with_your_socks_on_is_so_much/f35uh0q/",
      "body_html": "&lt;div class=\"md\"&gt;&lt;p&gt;It&amp;#39;s shit.&lt;/p&gt;\n&lt;/div&gt;",
      "downs": 0,
      "body": "It's shit.",
      "author": "Killahcamcam",
      "id": "t1_f35uh0q",
      "ups": 75,
      "parent_id": "t1_f35tfxh"
    },
    {
      "created_utc": 1570694504,
      "subreddit_name_prefixed": "r/unpopularopinion",
      "subreddit": "unpopularopinion",
      "depth": 2,
      "permalink": "/r/unpopularopinion/comments/dfqxf8/taking_showers_with_your_socks_on_is_so_much/f35wht6/",
      "body_html": "&lt;div class=\"md\"&gt;&lt;p&gt;It&amp;#39;s 3pm where I am. So still at work&lt;/p&gt;\n\n&lt;p&gt;Edit:sorry lads I&amp;#39;m still at a bar. I will update ASAP no bamboozle.&lt;/p&gt;\n&lt;/div&gt;",
      "downs": 0,
      "body": "It's 3pm where I am. So still at work\n\n\nEdit:sorry lads I'm still at a bar. I will update ASAP no bamboozle.",
      "author": "OceLawless",
      "id": "t1_f35wht6",
      "ups": 23,
      "parent_id": "t1_f35tfxh"
    }
  ]
}